{
  "facts_start": [
    "Since the last time you asked me,",
    "Since your last request."
  ],
  "facts": {
    "current_population": [
      " {} more people are living on the world.",
      " there are {} more people living on the world."
    ],
    "oil_reserves": [
      " {} barrels of oil were consumed."
    ],
    "dth1_hunger/today": [
      " {} people around the world did starve to death."
    ],
    "cellular/today": [
      " {} cell phones were sold."
    ],
    "cigarettes_smoked/today|dth1s_cigarettes/this_year": [
      " {} cigarettes were smoked worldwide. At the same time {} people died from the consequences of smoking."
    ],
    "oil_consumption": [
      " {} barrels of oil have been produced."
    ],
    "desert_land_formed/this_year": [
      " {} acres of land became desert."
    ],
    "drug_spending/this_year": [
      " {} dollars were spent on illegal drugs."
    ],
    "automobile_produced/this_year|bicycle_produced/this_year": [
      " {} cars and {} bicycles were produced."
    ],
    "tox_chem/this_year": [
      " {} tons of toxic chemicals ended up in the environment."
    ]
  },
  "current_population": [
    " There are currently {} people living in the world.",
    " There are {} people living on our earth right now."
  ],
  "load_error": [
    "There was a loading error, just try again. Maybe I don't have internet connection."
  ],
  "request_running": [
    "I'm still working on your last request.",
    "Don't be so impatient, I'm already working on it."
  ],
  "wait_for_answer": [
    "One moment please",
    "Your request is being processed",
    "I am now gathering some information"
  ]
}
